4 Data Wrangling I: Labels & factor – GradAB R Intro 2024
…
Wie können Sie die labels aus den attributes() mit as_factor() in eine Variable PD0400_fct übernehmen?

Erstellen Sie einen factor() Variable F411_01_fct2 mit value labels: 1 = Überhaupt nicht, 2 = Eher nicht,3 = Eher schon,4 = Sehr

Bonusübung: Verwenden Sie die gelabelte Variable für eine Balkengrafik.

4.4 Anhang

4.4.1 Labels löschen mit zap_... aus {haven}

Häufig führen die Label-attributes() zu Problemen in der weiteren Verarbeitung. Mit haven::zap_labels() können wir die Value labels aus einem Datensatz löschen mit haven::zap_label() können wir die Variable labels entfernen.

pend_kap5

# A tibble: 683 × 6
          pnr welle              zpsex         PSM0100             azges1 palter
        <dbl> <dbl+lbl>          <dbl+lbl>     <dbl+lbl>           <dbl+> <dbl+>
 1 1000002601 8 [Welle 8 (2014)] 2 [Weiblich]   2 [Nein]           22     34    
 2 1000010402 8 [Welle 8 (2014)] 2 [Weiblich]   1 [Ja]             40     30    
 3 1000019102 8 [Welle 8 (2014)] 1 [Maennlich]  2 [Nein]           40     34    
 4 1000031403 8 [Welle 8 (2014)] 1 [Maennlich] -5 [Nutzt kein Int… 44     52    
 5 1000032801 8 [Welle 8 (2014)] 2 [Weiblich]  -5 [Nutzt kein Int… 44     58    
 6 1000032802 8 [Welle 8 (2014)] 1 [Maennlich] -5 [Nutzt kein Int… 43     62    
 7 1000038201 8 [Welle 8 (2014)] 1 [Maennlich]  1 [Ja]             43     61    
 8 1000040003 8 [Welle 8 (2014)] 1 [Maennlich]  2 [Nein]           36     40    
 9 1000051801 8 [Welle 8 (2014)] 2 [Weiblich]   2 [Nein]           31     44    
10 1000053101 8 [Welle 8 (2014)] 1 [Maennlich]  1 [Ja]             27     47    
# ℹ 673 more rows

pend_kap5 %>% 
  haven::zap_labels() # value labels raus

# A tibble: 683 × 6
          pnr welle zpsex PSM0100 azges1 palter
        <dbl> <dbl> <dbl>   <dbl>  <dbl>  <dbl>
 1 1000002601     8     2       2     22     34
 2 1000010402     8     2       1     40     30
 3 1000019102     8     1       2     40     34
 4 1000031403     8     1      -5     44     52
 5 1000032801     8     2      -5     44     58
 6 1000032802     8     1      -5     43     62
 7 1000038201     8     1       1     43     61
 8 1000040003     8     1       2     36     40
 9 1000051801     8     2       2     31     44
10 1000053101     8     1       1     27     47
# ℹ 673 more rows
…
